com\blockeng\wallet\service\WalletCollectTaskService.class
com\blockeng\wallet\entity\User.class
com\blockeng\wallet\service\AdminAddressService.class
com\blockeng\wallet\service\CoinRechargeService.class
com\blockeng\wallet\controller\UserRechargeController.class
com\blockeng\wallet\entity\WalletCollectTask.class
com\blockeng\wallet\response\ResponseCode.class
com\blockeng\wallet\service\impl\CoinServerServiceImpl.class
com\blockeng\wallet\mapper\CoinBalanceMapper.class
com\blockeng\wallet\service\impl\CoinWithdrawServiceImpl.class
com\blockeng\wallet\mapper\CoinConfigMapper.class
com\blockeng\wallet\entity\WalletCoinRecharge.class
com\blockeng\wallet\service\WalletCoinRechargeService.class
com\blockeng\wallet\service\UserService.class
com\blockeng\wallet\dto\CoinRechargeDto.class
com\blockeng\wallet\response\BaseResponse.class
com\blockeng\wallet\service\impl\CoinBalanceServiceImpl.class
com\blockeng\wallet\entity\CoinWithdraw.class
com\blockeng\wallet\mapper\CoinWithdrawMapper.class
com\blockeng\wallet\mapper\UserWalletMapper.class
com\blockeng\wallet\config\RabbitConfig.class
com\blockeng\wallet\entity\CoinServer.class
com\blockeng\wallet\service\impl\CoinConfigServiceImpl.class
com\blockeng\wallet\service\CoinBalanceService.class
com\blockeng\wallet\service\impl\CoinRechargeServiceImpl.class
com\blockeng\wallet\entity\UserAddress.class
com\blockeng\wallet\service\CoinConfigService.class
com\blockeng\wallet\entity\AdminAddress.class
com\blockeng\wallet\mapper\CoinServerMapper.class
com\blockeng\wallet\mapper\WalletCoinRechargeMapper.class
com\blockeng\wallet\service\impl\UserAddressServiceImpl.class
com\blockeng\wallet\mapper\CoinRechargeMapper.class
com\blockeng\wallet\mapper\UserMapper.class
com\blockeng\wallet\service\CoinServerService.class
com\blockeng\wallet\service\impl\WalletCoinRechargeServiceImpl.class
com\blockeng\wallet\service\UserAddressService.class
com\blockeng\wallet\entity\AddressPool.class
com\blockeng\wallet\service\impl\WalletCollectTaskServiceImpl.class
com\blockeng\wallet\controller\AccountController.class
com\blockeng\wallet\entity\CoinBalance.class
com\blockeng\wallet\service\impl\UserWalletServiceImpl.class
com\blockeng\wallet\config\SwaggerConfig.class
com\blockeng\wallet\entity\CoinRecharge.class
com\blockeng\wallet\service\AccountService.class
com\blockeng\wallet\mapper\UserAddressMapper.class
com\blockeng\wallet\service\AddressPoolService.class
com\blockeng\wallet\service\WalletCoinWithdrawService.class
com\blockeng\wallet\service\CoinWithdrawService.class
com\blockeng\wallet\mapper\WalletCollectTaskMapper.class
com\blockeng\wallet\mapper\AdminAddressMapper.class
com\blockeng\wallet\service\UserWalletService.class
com\blockeng\wallet\config\MybatisPlusConfig.class
com\blockeng\wallet\entity\Account.class
com\blockeng\wallet\WalletApplication.class
com\blockeng\wallet\service\impl\AdminAddressServiceImpl.class
com\blockeng\wallet\entity\CoinConfig.class
com\blockeng\wallet\service\impl\UserServiceImpl.class
com\blockeng\wallet\response\ResponseResultUtil.class
com\blockeng\wallet\service\impl\AccountServiceImpl.class
com\blockeng\wallet\mapper\AddressPoolMapper.class
com\blockeng\wallet\mapper\AccountMapper.class
com\blockeng\wallet\util\GsonUtil.class
com\blockeng\wallet\service\impl\AddressPoolServiceImpl.class
com\blockeng\wallet\entity\UserWallet.class
