G:\work\coin\dase\exchange\exchange-wallet\src\main\java\com\blockeng\wallet\service\impl\CoinRechargeServiceImpl.java
G:\work\coin\dase\exchange\exchange-wallet\src\main\java\com\blockeng\wallet\mapper\CoinRechargeMapper.java
G:\work\coin\dase\exchange\exchange-wallet\src\main\java\com\blockeng\wallet\dto\CoinRechargeDto.java
G:\work\coin\dase\exchange\exchange-wallet\src\main\java\com\blockeng\wallet\mapper\AddressPoolMapper.java
G:\work\coin\dase\exchange\exchange-wallet\src\main\java\com\blockeng\wallet\service\AddressPoolService.java
G:\work\coin\dase\exchange\exchange-wallet\src\main\java\com\blockeng\wallet\service\CoinRechargeService.java
G:\work\coin\dase\exchange\exchange-wallet\src\main\java\com\blockeng\wallet\service\UserWalletService.java
G:\work\coin\dase\exchange\exchange-wallet\src\main\java\com\blockeng\wallet\mapper\UserAddressMapper.java
G:\work\coin\dase\exchange\exchange-wallet\src\main\java\com\blockeng\wallet\mapper\WalletCoinRechargeMapper.java
G:\work\coin\dase\exchange\exchange-wallet\src\main\java\com\blockeng\wallet\entity\CoinRecharge.java
G:\work\coin\dase\exchange\exchange-wallet\src\main\java\com\blockeng\wallet\mapper\CoinConfigMapper.java
G:\work\coin\dase\exchange\exchange-wallet\src\main\java\com\blockeng\wallet\util\GsonUtil.java
G:\work\coin\dase\exchange\exchange-wallet\src\main\java\com\blockeng\wallet\service\impl\UserAddressServiceImpl.java
G:\work\coin\dase\exchange\exchange-wallet\src\main\java\com\blockeng\wallet\service\WalletCoinWithdrawService.java
G:\work\coin\dase\exchange\exchange-wallet\src\main\java\com\blockeng\wallet\entity\AdminAddress.java
G:\work\coin\dase\exchange\exchange-wallet\src\main\java\com\blockeng\wallet\service\impl\UserWalletServiceImpl.java
G:\work\coin\dase\exchange\exchange-wallet\src\main\java\com\blockeng\wallet\controller\UserRechargeController.java
G:\work\coin\dase\exchange\exchange-wallet\src\main\java\com\blockeng\wallet\service\WalletCollectTaskService.java
G:\work\coin\dase\exchange\exchange-wallet\src\main\java\com\blockeng\wallet\mapper\CoinServerMapper.java
G:\work\coin\dase\exchange\exchange-wallet\src\main\java\com\blockeng\wallet\mapper\AdminAddressMapper.java
G:\work\coin\dase\exchange\exchange-wallet\src\main\java\com\blockeng\wallet\mapper\CoinWithdrawMapper.java
G:\work\coin\dase\exchange\exchange-wallet\src\main\java\com\blockeng\wallet\entity\CoinWithdraw.java
G:\work\coin\dase\exchange\exchange-wallet\src\main\java\com\blockeng\wallet\config\SwaggerConfig.java
G:\work\coin\dase\exchange\exchange-wallet\src\main\java\com\blockeng\wallet\service\impl\WalletCoinRechargeServiceImpl.java
G:\work\coin\dase\exchange\exchange-wallet\src\main\java\com\blockeng\wallet\WalletApplication.java
G:\work\coin\dase\exchange\exchange-wallet\src\main\java\com\blockeng\wallet\service\impl\AddressPoolServiceImpl.java
G:\work\coin\dase\exchange\exchange-wallet\src\main\java\com\blockeng\wallet\service\impl\WalletCollectTaskServiceImpl.java
G:\work\coin\dase\exchange\exchange-wallet\src\main\java\com\blockeng\wallet\config\MybatisPlusConfig.java
G:\work\coin\dase\exchange\exchange-wallet\src\main\java\com\blockeng\wallet\entity\UserWallet.java
G:\work\coin\dase\exchange\exchange-wallet\src\main\java\com\blockeng\wallet\entity\CoinConfig.java
G:\work\coin\dase\exchange\exchange-wallet\src\main\java\com\blockeng\wallet\service\impl\CoinConfigServiceImpl.java
G:\work\coin\dase\exchange\exchange-wallet\src\main\java\com\blockeng\wallet\service\impl\UserServiceImpl.java
G:\work\coin\dase\exchange\exchange-wallet\src\main\java\com\blockeng\wallet\service\CoinConfigService.java
G:\work\coin\dase\exchange\exchange-wallet\src\main\java\com\blockeng\wallet\response\ResponseResultUtil.java
G:\work\coin\dase\exchange\exchange-wallet\src\main\java\com\blockeng\wallet\service\CoinBalanceService.java
G:\work\coin\dase\exchange\exchange-wallet\src\main\java\com\blockeng\wallet\mapper\UserWalletMapper.java
G:\work\coin\dase\exchange\exchange-wallet\src\main\java\com\blockeng\wallet\service\AccountService.java
G:\work\coin\dase\exchange\exchange-wallet\src\main\java\com\blockeng\wallet\entity\WalletCoinRecharge.java
G:\work\coin\dase\exchange\exchange-wallet\src\main\java\com\blockeng\wallet\entity\UserAddress.java
G:\work\coin\dase\exchange\exchange-wallet\src\main\java\com\blockeng\wallet\mapper\CoinBalanceMapper.java
G:\work\coin\dase\exchange\exchange-wallet\src\main\java\com\blockeng\wallet\service\impl\CoinWithdrawServiceImpl.java
G:\work\coin\dase\exchange\exchange-wallet\src\main\java\com\blockeng\wallet\mapper\WalletCollectTaskMapper.java
G:\work\coin\dase\exchange\exchange-wallet\src\main\java\com\blockeng\wallet\response\ResponseCode.java
G:\work\coin\dase\exchange\exchange-wallet\src\main\java\com\blockeng\wallet\config\RabbitConfig.java
G:\work\coin\dase\exchange\exchange-wallet\src\main\java\com\blockeng\wallet\entity\WalletCollectTask.java
G:\work\coin\dase\exchange\exchange-wallet\src\main\java\com\blockeng\wallet\mapper\AccountMapper.java
G:\work\coin\dase\exchange\exchange-wallet\src\main\java\com\blockeng\wallet\service\CoinWithdrawService.java
G:\work\coin\dase\exchange\exchange-wallet\src\main\java\com\blockeng\wallet\entity\User.java
G:\work\coin\dase\exchange\exchange-wallet\src\main\java\com\blockeng\wallet\controller\AccountController.java
G:\work\coin\dase\exchange\exchange-wallet\src\main\java\com\blockeng\wallet\entity\Account.java
G:\work\coin\dase\exchange\exchange-wallet\src\main\java\com\blockeng\wallet\mapper\UserMapper.java
G:\work\coin\dase\exchange\exchange-wallet\src\main\java\com\blockeng\wallet\service\impl\CoinServerServiceImpl.java
G:\work\coin\dase\exchange\exchange-wallet\src\main\java\com\blockeng\wallet\entity\AddressPool.java
G:\work\coin\dase\exchange\exchange-wallet\src\main\java\com\blockeng\wallet\entity\CoinServer.java
G:\work\coin\dase\exchange\exchange-wallet\src\main\java\com\blockeng\wallet\service\impl\AdminAddressServiceImpl.java
G:\work\coin\dase\exchange\exchange-wallet\src\main\java\com\blockeng\wallet\service\AdminAddressService.java
G:\work\coin\dase\exchange\exchange-wallet\src\main\java\com\blockeng\wallet\service\UserService.java
G:\work\coin\dase\exchange\exchange-wallet\src\main\java\com\blockeng\wallet\service\impl\AccountServiceImpl.java
G:\work\coin\dase\exchange\exchange-wallet\src\main\java\com\blockeng\wallet\service\impl\CoinBalanceServiceImpl.java
G:\work\coin\dase\exchange\exchange-wallet\src\main\java\com\blockeng\wallet\response\BaseResponse.java
G:\work\coin\dase\exchange\exchange-wallet\src\main\java\com\blockeng\wallet\entity\CoinBalance.java
G:\work\coin\dase\exchange\exchange-wallet\src\main\java\com\blockeng\wallet\service\CoinServerService.java
G:\work\coin\dase\exchange\exchange-wallet\src\main\java\com\blockeng\wallet\service\UserAddressService.java
G:\work\coin\dase\exchange\exchange-wallet\src\main\java\com\blockeng\wallet\service\WalletCoinRechargeService.java
